------------------------------------------------------------------------------
                                 Screenshot
------------------------------------------------------------------------------



        ^^^ ^^^^^^         ^^^^^^^^^^^^^^^^^^^^^^^         ^^^         ^^^^^^
    ^ ^^^*^^^^^^^^^^    ^^^^^^+^^^^^^^^^^^*^^^^^^^^      ^^^^^^^^^     ^^^..^
   ^^^^===""""~~~^^^^  ^*^^^&&&&&&&~~~~~~~~~~~~**^^=======^^*^^^^^^^^^^^*.@^^
  ^^^===="""~~~~~~o^^  ^^&&&&&&o&&&&&&&~~~~~~~&&&========="""""""&&^~^^*^.^^
 ^^^^"""""~~~^^^^^^^^  ^^^^^^^&&&&&&&&&&&&&&&&&&&&&&==""""""""""&&~~~^....^^
 ^^"""""~~^^*^^^^^^^    ^^^^^^^^^^^^^^^&&&&&&&&&""""=""""""""""&&&&&o..~^^o^
 ^^^"""~~~^^^^^^            ^^*^o""""""""""""""""""=="""""""""&&&&&&&&&&^^^^
 ^^~~~~~~^^^^^^^^^^^^^^^^^^^^^^""""""""""""""""""""=""""""""&&&&&*&&&&&~~^^
 ^*^~^^^^^~~~^^^^^^^^^^^^^^^^^"""""&&&&"""*&&&&""""=="""""&&&&&&&&&&&&~~~^^^
 ^^^^^^^^o~~~~~~"o""""^^"""""""""&&&&&&&&&......*^^^=="""""""&&o&&&&~~~~^*^^
  ^^^^^^^^~~~~"""""""""""""""""&&&&&&&&&&&&&&&&.^^*^^===""""""&&&&&&~~~^^^^^
   ^  ^^~~~~~"""""""""""""""&&&&&&&*&*&&&&&&&&&....^^^^==="""&&""&&&~~~~~^^
      ^^&"""" """""""""""""&&&&&&&&&&&&&*&&&&&&&&&.""""""===="""""~~~~~^^^^^^
      ^^&&""""""""""""""""&&&&&&&&&&&&&&&&&&&&&&&&""""""==""====""~~~*^^^^^*^
      ^*^&&&&&&&&&&&&&&&&&&^^^*^^^^&&&&&&&&&&&&&&"""""===""""""""~~~~^^^^ ^~^
       ^^^^&&&&&&&&&&&&&^^*^^^^^^^^^^^^^*^^&&&&&&&&&&""""""=^^"""~^^^^^^^ ^o^
        ^^^^^^^^^^^^^^^^^^^^^^^^^^^^^^^^^^^^^^^^^^^^^^^*^^^^^^^^+^^^^^^^  ^^^
          ^^^^^^^^^^^^^  ^^^ ^^^     ^^^^^^^^^^^^^^^^^^^^^^^^^^^^^^^^

Bandit       St:40  Le:36  Wi:48  Dx:57  To:51  Ch:35  Ap:40  Ma:10  Pe:28  L+
DV/PV:118/85    H:903(903)    P:316(316)    Exp:48/19067085    DrCh  Sp:126
Blessed Bloated Strained
------------------------------------------------------------------------------


----------------------------------------------------------------------------
                            Background Information
----------------------------------------------------------------------------

Name: Bandit              Race: male Dwarf          Class: Weaponsmith
Eye color: brown          Hair color: brown         Complexion: tanned
Height: 4'                Weight: 160 pounds
Age: 65 (adult, 1 year of unnatural aging added in)
Star sign: Dragon         Birthday: 27/Dragon (day 177 of the year)

YOUR HISTORY:
        Your parents are traveling adventurers. They are doing moderately
 well but are talented enough to survive.
        In your childhood you were a credit to your family. Your people
 loved you and enjoyed your presence.
        During your youth you were very lazy. You slept a lot and didn't
 care too much for your duties and tasks. Your parents were not very happy
 with you.
        As a young adult you were a credit to your family. Your parents
 supported your plans and were very understanding. They tried to help you
 along your way with all means at their disposal.
        You decided to become a Weaponsmith.


----------------------------------------------------------------------------
                                  Inventory
----------------------------------------------------------------------------
Total weight: 27800 stones                Carrying capacity: 27698 stones

He: blessed eternium cap [+13, +8]                                    [28s]
Ne: blessed sapphire amulet "Preserver" [+4, +4] {Wi+7}                [3s]
Bo: blessed Perion's mithril plate mail (+4, +4) [-1, +19] {Ch+9}    [450s]
Gi: blessed girdle of greed [+0, +0]                                   [7s]
Cl: blessed glowing green cloak "Venom Mantle" [+4, +4]               [40s]
RH: blessed black whip of extinction (-4, 4d8)                        [15s]
LH: blessed large mithril shield (-1) [+15, +8]                       [96s]
RR: blessed ring of slaying (+8 melee damage, +6 missile damage) {adamantium}
LR: blessed ring of the master cat [+0, +5] {Dx+16} (+16 spd) {adamantium}
Br: blessed bracers of war [+8, +4] {Dx+8} {gold}                     [10s]
Ga: blessed elemental gauntlets (-1, +0) [+0, +3] {iron}              [10s]
Bo: blessed seven league boots [+8, +2]                               [30s]
MW: uncursed long bow of accuracy (+7, +2)                            [30s]
Mi: bundle of 19 uncursed arrows of dragon slaying (+3, 1d6+3)        [38s]
Tl: blessed unpick axe (+3, 3d6+3) {To+10}                            [75s]


----------------------------------------------------------------------------
                                    Stuff
----------------------------------------------------------------------------

Total weight: 26966 stones   Carrying capacity: 27698 stones

Helmets ('[')
   uncursed eternium cap [+0, +5]                                     [28s]
Armor ('[')
   uncursed ancient mummy wrapping [+1, +5] {Ap-8}                    [60s]
   heap of 2 uncursed eternium plate mails (-1, -2) [-1, +13]        [480s]
   uncursed elven chain mail of resilience [+2, +5] {mithril}         [10s]
Shields ('[')
   uncursed tower eternium shield (-1) [+13, +7]                      [70s]
Gauntlets ('[')
   uncursed thick gauntlets (-1, -2) [-2, +1]                         [15s]
   uncursed thick gauntlets (-1, -2) [+3, +1]                         [15s]
   heap of 3 uncursed pairs of thick gauntlets (-1, -2) [+0, +1]      [45s]
   uncursed thick gauntlets (-1, -2) [+0, +3]                         [15s]
Girdles ('[')
   blessed adamantium girdle [+6, +7]                                 [18s]
   heap of 2 uncursed girdles of greed [+0, +0]                       [14s]
   uncursed girdle of greed [+2, +0]                                   [7s]
   heap of 2 uncursed girdles of carrying [+0, +0]                    [30s]
   cursed eternium girdle [+0, +4]                                    [12s]
Boots ('[')
   blessed adamantium boots [+7, +8]                                  [89s]
   blessed boots of levitation [+0, +0]                               [20s]
   blessed mithril boots [-1, +2]                                     [96s]
   uncursed eternium boots [+0, +8]                                   [55s]
Necklaces (''')
   heap of 2 blessed amulets of order                                  [6s]
   heap of 3 uncursed amulets of light                                 [9s]
   uncursed amulet of free action {iron}                               [3s]
Bracers (',')
   uncursed bracers of resistance [+0, +0] {iron}                     [10s]
   heap of 2 uncursed pairs of bracers of lifting [+0, +0]            [16s]
One-handed weapons ('(')
   uncursed adamantium warhammer of slaughtering (+0, 3d5+9)          [43s]
   uncursed scourge (-5, 1d3+3)                                       [25s]
Two-handed weapons ('(')
   blessed light staff of sensing traps (+0, 1d10) [+1, +0]           [19s]
   uncursed staff of dampening (+1, 1d10+2) <78%>                     [40s]
   blessed staff of learning (+0, 1d8) {Le+2}                         [15s]
   uncursed light staff of dampening (+0, 1d10+1)                     [20s]
   uncursed staff of sensing traps (+3, 1d10+2) [+1, +0]              [39s]
   uncursed staff of parting water (+0, 1d10)                         [40s]
   blessed rune-covered trident (+6, 3d12+6) [+4, +4] {Dx+12} {iron}  [80s]
   uncursed staff of the archmagi (+5, 5d2+2) [+9, +0] {Ma+10} <39%>  [40s]
   uncursed quicksilver quarterstaff (+8, 5d3+5) [+3, +0] (+20 spd) {iron}
   uncursed ancient claymore "Death's Blade" (+6, 6d8+6) [+4, +0] {eternium}
Missile weapons ('}')
   blessed light crossbow of accuracy (+8, +5) {iron}                 [70s]
   blessed rune-covered sling "Whirlwind" (+12, +12)                   [3s]
   uncursed short bow (+3, +3)                                        [20s]
Missiles ('/')
   bundle of 35 uncursed quarrels of undead slaying (+3, 2d6+3)      [140s]
   blessed arrow of humanoid slaying (+3, 1d6+3)                       [2s]
   bundle of 6 blessed quarrels of dragon slaying (+3, 2d6+3) {iron}  [24s]
   bundle of 4 uncursed mithril quarrels of targeting (+7, 2d6+3)      [8s]
   bundle of 15 uncursed arrows of demon slaying (+3, 1d6+3)          [30s]
   bundle of 8 uncursed truesilver sling bullets (+7, 2d5+4)           [8s]
   bundle of 8 blessed arrows of targeting (+6, 1d6)                  [16s]
   bundle of 5 uncursed mithril sling bullets of hunting (+4, 2d5)    [15s]
   bundle of 5 uncursed griffon-feathered mithril sling bullets (+4, 2d5)
   bundle of 14 uncursed arrows of giant slaying (+3, 1d10+3)         [28s]
   blessed penetrating boomerang (+3, 2d4+1)                          [20s]
   bundle of 9 uncursed eternium arrows (+1, 2d6+8)                    [9s]
   bundle of 4 blessed quarrels of humanoid slaying (+3, 2d6+3) {iron}[16s]
   uncursed quarrel of dragon slaying (+3, 2d6+3) {iron}               [4s]
   bundle of 3 blessed drakish scurgari of death (+12, 6d8+6) {iron}  [30s]
   bundle of 6 uncursed adamantium quarrels (+1, 2d6+6)                [6s]
   bundle of 16 uncursed sling bullets of undead slaying (+3, 2d3) {eternium}
   bundle of 7 uncursed eternium sling bullets (+5, 3d5)              [21s]
   bundle of 4 uncursed truesilver quarrels (+4, 2d6+4)                [4s]
   bundle of 6 uncursed sling bullets of insect slaying (+3, 2d3) {eternium}
   bundle of 8 uncursed sling bullets of demon slaying (+3, 2d3) {eternium}
   bundle of 25 blessed quarrels (+1, 2d6) {iron}                     [50s]
   bundle of 3 uncursed adamantium drakish scurgari (+7, 1d8+7)       [21s]
   bundle of 6 uncursed mithril quarrels (+1, 2d6+3)                  [12s]
   bundle of 10 uncursed griffon-feathered quarrels (+1, 2d6) {iron}  [20s]
   bundle of 28 uncursed sling bullets of giant slaying (+3, 2d3) {eternium}
   bundle of 4 uncursed griffon-feathered black hurthling quarrels (+1, 1d3+2) {iron}
   bundle of 4 blessed quarrels of demon slaying (+3, 2d6+3)          [16s]
   bundle of 13 uncursed quarrels of construct slaying (+3, 2d6+3) {iron}
   bundle of 9 uncursed quarrels of hunting (+1, 2d6) {iron}          [18s]
   bundle of 15 uncursed arrows of targeting (+6, 1d6)                [30s]
   bundle of 66 uncursed quarrels (+1, 2d6) {iron}                   [132s]
   bundle of 3 uncursed griffon-feathered mithril quarrels (+1, 2d6+3) [6s]
   bundle of 10 uncursed arrows of jelly slaying (+3, 2d4+3)          [20s]
   bundle of 62 uncursed arrows (+0, 1d6)                            [124s]
   bundle of 3 uncursed black hurthling quarrels (+1, 1d3+2) {iron}    [6s]
   bundle of 7 uncursed sling bullets of humanoid slaying (+3, 2d3) {eternium}
   bundle of 29 uncursed arrows of construct slaying (+3, 1d6+3)      [58s]
   bundle of 15 uncursed drakish scurgari of death (+12, 6d8+6) {iron}
   bundle of 16 blessed weighted arrows (+0, 1d6+4)                   [32s]
   bundle of 24 uncursed mithril sling bullets (+4, 2d5)              [72s]
   bundle of 17 uncursed quarrels of demon slaying (+3, 2d6+3)        [68s]
   bundle of 51 uncursed quarrels of humanoid slaying (+3, 2d6+3) {iron}
   bundle of 9 uncursed unbalanced adamantium sling bullets (-4, 3d4) [27s]
   bundle of 29 uncursed arrows of undead slaying (+3, 2d4+3)         [58s]
   blessed throwing knife of hunting (+1, 1d3-1) {iron}                [8s]
   bundle of 18 uncursed quarrels of jelly slaying (+3, 2d6+3)        [72s]
   bundle of 16 uncursed sling bullets of construct slaying (+3, 2d3) {eternium}
   bundle of 16 uncursed adamantium sling bullets (+4, 3d4)           [48s]
   bundle of 5 blessed arrows of jelly slaying (+3, 2d4+3)            [10s]
   bundle of 2 uncursed eternium drakish scurgari (+9, 2d8+9)         [10s]
   bundle of 22 uncursed arrows of humanoid slaying (+3, 1d6+3)       [44s]
   heap of 2 uncursed rocks (+0, 1d4)                                 [10s]
   uncursed heavy throwing club (-2, 2d6+4)                           [80s]
   bundle of 5 uncursed adamantium arrows of targeting (+7, 1d6+6)     [5s]
   bundle of 5 uncursed eternium quarrels (+1, 4d6+8)                  [5s]
Tools (']')
   heap of 2 uncursed hexagonal keys {iron}                            [2s]
   blessed waterproof blanket                                         [10s]
   uncursed thieves picks                                              [5s]
   blessed horn of plenty                                             [40s]
   heap of 3 uncursed triangular keys {iron}                           [3s]
   heap of 3 uncursed waterproof blankets                             [30s]
   heap of 3 blessed small keys {iron}                                 [3s]
   heap of 2 blessed tiny keys {iron}                                  [2s]
   heap of 3 uncursed round keys {iron}                                [3s]
   heap of 3 uncursed tiny keys {iron}                                 [3s]
   uncursed piece of eternium ore                                     [90s]
   heap of 2 uncursed fireproof blankets                              [20s]
   uncursed iron ingot                                                [20s]
   uncursed stethoscope                                                [5s]
   heap of 6 uncursed square keys {iron}                               [6s]
   heap of 2 blessed fireproof blankets                               [20s]
   uncursed small key {iron}                                           [1s]
Rings ('=')
   heap of 2 uncursed rings of invisibility                            [2s]
   heap of 2 blessed brass rings                                       [2s]
   blessed ring of djinni summoning {adamantium}                       [1s]
   uncursed ring of regeneration {gold}                                [1s]
   heap of 2 uncursed rings of cold resistance                         [2s]
   blessed ring of damage {adamantium}                                 [1s]
   uncursed ring of slaying (+6 melee damage, +6 missile damage) {adamantium}
   heap of 2 uncursed rings of ice {mithril}                           [2s]
   heap of 2 uncursed rings of fire {adamantium}                       [2s]
Wands ('\')
   blessed wand of door creation (2 charges)                           [3s]
   uncursed wand of trap creation (7 charges)                          [3s]
   uncursed wand of digging (0 charges)                                [3s]
   uncursed wand of monster creation (3 charges) {iron}                [3s]
   blessed wand of cold (1 charge) {iron}                              [4s]
   uncursed wand of teleportation (0 charges) {iron}                   [4s]
   uncursed wand of stunning (6 charges)                               [3s]
   uncursed wand of light (0 charges) {iron}                           [4s]
   uncursed wand of cold (0 charges) {iron}                            [4s]
   uncursed wand of door creation (1 charge)                           [3s]
   uncursed wand of light (4 charges) {iron}                           [4s]
   uncursed wand of acid (4 charges)                                   [4s]
   uncursed wand of stunning (7 charges)                               [3s]
   uncursed wand of fireballs (2 charges)                              [3s]
   blessed wand of fireballs (10 charges)                              [3s]
   blessed wand of digging (2 charges)                                 [3s]
   blessed wand of door creation (6 charges)                           [3s]
   uncursed wand of lightning (2 charges) {iron}                       [4s]
   uncursed wand of far slaying (3 charges)                            [3s]
   uncursed wand of ball lightning (6 charges)                         [4s]
   uncursed wand of fire (2 charges) {iron}                            [4s]
   uncursed wand of teleportation (2 charges) {iron}                   [4s]
   uncursed wand of poison (7 charges)                                 [3s]
   uncursed wand of digging (4 charges)                                [3s]
   uncursed wand of poison (4 charges)                                 [3s]
   uncursed wand of door creation (6 charges)                          [3s]
   uncursed wand of monster creation (0 charges) {iron}                [3s]
   uncursed wand of stunning (7 charges)                               [3s]
   blessed wand of trap detection (1 charge) {iron}                    [3s]
   uncursed wand of fire (2 charges) {iron}                            [4s]
   uncursed wand of fireballs (2 charges)                              [3s]
   uncursed wand of light (5 charges) {iron}                           [4s]
   uncursed wand of door creation (4 charges)                          [3s]
   uncursed wand of lightning (3 charges) {iron}                       [4s]
   uncursed wand of item detection (6 charges)                         [3s]
   uncursed wand of item detection (0 charges)                         [3s]
   uncursed wand of item detection (7 charges)                         [3s]
   uncursed wand of paralyzation (4 charges)                           [3s]
   uncursed wand of magic missiles (2 charges) {iron}                  [3s]
   blessed wand of knocking (3 charges)                                [3s]
   blessed wand of wonder (1 charge)                                   [3s]
   uncursed wand of trap detection (5 charges) {iron}                  [3s]
   uncursed wand of door creation (8 charges)                          [3s]
   uncursed wand of monster creation (4 charges) {iron}                [3s]
   uncursed wand of acid (2 charges)                                   [4s]
   uncursed wand of gold detection (7 charges) {iron}                  [6s]
   uncursed wand of digging (0 charges)                                [3s]
   uncursed wand of magic missiles (2 charges) {iron}                  [3s]
   uncursed wand of monster detection (0 charges)                      [3s]
   uncursed wand of monster detection (4 charges)                      [3s]
   uncursed wand of destruction (2 charges)                            [3s]
   uncursed wand of acid (2 charges)                                   [4s]
   uncursed wand of bunny summoning (2 charges)                        [3s]
   uncursed wand of cold (2 charges) {iron}                            [4s]
   uncursed wand of ball lightning (3 charges)                         [4s]
   uncursed wand of webbing (10 charges)                               [3s]
   uncursed wand of door creation (3 charges)                          [3s]
   blessed wand of trap detection (5 charges) {iron}                   [3s]
   uncursed wand of door creation (3 charges)                          [3s]
   uncursed wand of lightning (0 charges) {iron}                       [4s]
   uncursed wand of webbing (7 charges)                                [3s]
   uncursed wand of Grond (5 charges)                                  [3s]
   uncursed wand of door creation (6 charges)                          [3s]
   blessed wand of lightning (0 charges) {iron}                        [4s]
   uncursed wand of door creation (1 charge)                           [3s]
   uncursed wand of item detection (7 charges)                         [3s]
   uncursed wand of door creation (4 charges)                          [3s]
   uncursed wand of digging (1 charge)                                 [3s]
   uncursed wand of monster detection (4 charges)                      [3s]
   uncursed wand of fire (3 charges) {iron}                            [4s]
   uncursed wand of lightning (2 charges) {iron}                       [4s]
   uncursed wand of stunning (6 charges)                               [3s]
   uncursed wand of light (2 charges) {iron}                           [4s]
   uncursed wand of door creation (3 charges)                          [3s]
   uncursed wand of lightning (4 charges) {iron}                       [4s]
   uncursed wand of trap detection (1 charge) {iron}                   [3s]
   uncursed wand of monster detection (4 charges)                      [3s]
   uncursed wand of stunning (2 charges)                               [3s]
   uncursed wand of trap detection (7 charges) {iron}                  [3s]
   uncursed wand of wishing (2 charges) {eternium}                     [3s]
   uncursed wand of door creation (6 charges)                          [3s]
   uncursed wand of door creation (3 charges)                          [3s]
   blessed wand of door creation (1 charge)                            [3s]
   uncursed wand of stunning (3 charges)                               [3s]
   uncursed wand of wonder (4 charges)                                 [3s]
   uncursed wand of fire (3 charges) {iron}                            [4s]
   uncursed wand of knocking (5 charges)                               [3s]
   uncursed wand of door creation (7 charges)                          [3s]
   uncursed wand of lightning (2 charges) {iron}                       [4s]
   uncursed wand of stunning (6 charges)                               [3s]
   uncursed wand of wonder (5 charges)                                 [3s]
   blessed wand of door creation (4 charges)                           [3s]
   uncursed wand of monster creation (3 charges) {iron}                [3s]
   blessed wand of fire (0 charges) {iron}                             [4s]
   uncursed wand of item detection (4 charges)                         [3s]
   uncursed wand of door creation (4 charges)                          [3s]
   uncursed wand of far slaying (10 charges)                           [3s]
   uncursed wand of gold detection (5 charges) {iron}                  [6s]
   uncursed wand of wishing (1 charge) {eternium}                      [3s]
   uncursed wand of knocking (10 charges)                              [3s]
   uncursed rusty wand of light (10 charges) {iron}                    [4s]
   uncursed wand of door creation (5 charges)                          [3s]
   blessed wand of ball lightning (5 charges)                          [4s]
   uncursed wand of earthquakes (1 charge)                             [3s]
   uncursed wand of monster creation (5 charges) {iron}                [3s]
   uncursed wand of webbing (5 charges)                                [3s]
   uncursed wand of magic missiles (0 charges) {iron}                  [3s]
Potions ('!')
   heap of 2 blessed potions of invisibility                           [8s]
   heap of 5 uncursed potions of ultra healing                        [10s]
   blessed potion of booze                                             [4s]
   uncursed potion of sickness                                         [2s]
   heap of 6 blessed potions of extra healing                         [12s]
   heap of 5 uncursed potions of boost charisma                       [10s]
   heap of 2 uncursed potions of extra healing                         [4s]
   blessed potion of raw mana                                          [2s]
   heap of 6 uncursed potions of confusion                            [12s]
   heap of 3 uncursed potions of boost strength                        [6s]
   heap of 4 uncursed potions of boost perception                      [8s]
   heap of 4 uncursed berzio potions                                   [8s]
   uncursed potion of oil                                              [2s]
   blessed oil of rust removal                                         [2s]
   blessed potion of poison                                            [4s]
   heap of 2 uncursed potions of balance                               [8s]
   heap of 2 uncursed potions of insight                               [4s]
   heap of 3 uncursed potions of raw chaos                             [6s]
   heap of 16 uncursed potions of invisibility                        [64s]
   uncursed potion of self-mutilation                                  [3s]
   heap of 2 uncursed oils of rust removal                             [4s]
   blessed potion of insight                                           [2s]
   heap of 18 uncursed potions of cure poison                         [36s]
   heap of 6 blessed potions of ultra healing                         [12s]
   heap of 3 uncursed potions of boost willpower                       [6s]
   heap of 26 potions of holy water                                  [104s]
   heap of 3 uncursed potions of boost speed                           [6s]
   heap of 3 uncursed potions of boost appearance                      [6s]
   blessed potion of exchange                                          [4s]
   blessed potion of balance                                           [4s]
   blessed potion of learning                                          [4s]
   heap of 14 uncursed potions of healing                             [56s]
   heap of 9 uncursed potions of blindness                            [18s]
   uncursed potion of boost learning                                   [2s]
   heap of 13 uncursed potions of carrot juice                        [52s]
   uncursed potion of boost dexterity                                  [2s]
   heap of 11 uncursed potions of poison                              [44s]
   heap of 7 uncursed potions of exchange                             [28s]
   heap of 19 uncursed potions of booze                               [76s]
   heap of 4 uncursed potions of raw mana                              [8s]
   heap of 3 blessed berzio potions                                    [6s]
   blessed potion of cure poison                                       [2s]
   heap of 6 uncursed potions of boost mana                           [12s]
   uncursed potion of dexterity                                        [4s]
   heap of 2 uncursed potions of youth                                 [8s]
   uncursed potion of boost toughness                                  [2s]
   uncursed potion of potential willpower                              [4s]
Scrolls ('?')
   uncursed scroll of warning                                          [2s]
   heap of 2 uncursed scrolls of monster aggravation                   [4s]
   blessed scroll of balance                                           [2s]
   uncursed scroll of dark predictions                                 [2s]
   heap of 3 uncursed scrolls of increase melee accuracy               [6s]
   uncursed papyrus scroll                                             [2s]
   heap of 2 uncursed scrolls of monster detection                     [4s]
   heap of 2 cursed scrolls of amnesia                                 [4s]
   uncursed antediluvian scroll covered with dwarven runes             [2s]
   heap of 6 blessed scrolls of uncursing                             [12s]
   heap of 2 uncursed scrolls of repair                                [4s]
   uncursed scroll of increase melee damage                            [2s]
   uncursed scroll of danger                                           [2s]
   uncursed antediluvian dwarven map                                   [2s]
   heap of 2 uncursed scrolls of luck                                  [4s]
   blessed scroll of gold detection                                    [2s]
   heap of 3 uncursed scrolls of item detection                        [6s]
   blessed scroll of repair                                            [2s]
   heap of 12 uncursed scrolls of power                               [24s]
   heap of 8 uncursed scrolls of great identify                       [16s]
   blessed scroll of light                                             [2s]
   uncursed scroll of ill fate                                         [2s]
   heap of 5 uncursed scrolls of balance                              [10s]
   heap of 3 uncursed scrolls of defense                               [6s]
   heap of 6 uncursed scrolls of identify                             [12s]
   heap of 8 uncursed scrolls of darkness                             [16s]
   uncursed scroll of peace                                            [2s]
   uncursed scroll of item creation                                    [2s]
   uncursed scroll of vermin control                                   [2s]
   blessed scroll of defense                                           [2s]
   heap of 4 blessed scrolls of identify                               [8s]
   heap of 5 uncursed scrolls of teleportation                        [10s]
   heap of 3 uncursed scrolls of familiar summoning                    [6s]
   heap of 9 uncursed scrolls of uncursing                            [18s]
   uncursed scroll of protection                                       [2s]
   uncursed scroll of magic mapping                                    [2s]
   heap of 2 uncursed scrolls of treasure creation                     [4s]
   heap of 13 uncursed scrolls of light                               [26s]
   uncursed scroll of charging                                         [2s]
   heap of 11 uncursed scrolls of gold detection                      [22s]
   uncursed scroll of item destruction                                 [2s]
   blessed scroll of item creation                                     [2s]
   blessed scroll of corruption removal                                [2s]
   cursed scroll of increase melee damage                              [2s]
Food ('%')
   heap of 15 uncursed pepper petals                                  [30s]
   heap of 12 uncursed mushrooms of meditation                        [24s]
   heap of 5 uncursed mushrooms of kaboom                             [10s]
   heap of 8 blessed mushrooms of kaboom                              [16s]
   heap of 8 blessed pepper petals                                    [16s]
   heap of 3 blessed mushrooms of energy                               [6s]
   uncursed spenseweed                                                 [2s]
   heap of 27 blessed stomacemptia herbs                              [54s]
   heap of 15 blessed stomafillia herbs                               [30s]
   heap of 23 uncursed stomafillia herbs                              [46s]
   heap of 13 uncursed stomacemptia herbs                             [26s]
   heap of 9 uncursed lumps of beeswax                                [45s]
   heap of 20 uncursed curaria mancox herbs                           [40s]
   heap of 63 blessed spenseweeds                                    [126s]
   heap of 4 blessed moss patches of mareilon                          [8s]
   heap of 23 blessed alraunia antidotes                              [46s]
   uncursed loaf of elven bread                                        [3s]
   blessed morgia root                                                 [2s]
   heap of 3 uncursed large rations                                  [600s]
   heap of 2 uncursed morgia roots                                     [4s]
   uncursed devil's rose                                               [2s]
   uncursed demon daisy                                                [2s]
   heap of 37 blessed curaria mancox herbs                            [74s]
   blessed frog legs                                                   [2s]
   uncursed bit of gnomish candy                                       [2s]
   uncursed plant seed                                                 [2s]
   uncursed loaf of hurthling bread                                   [30s]
   uncursed hurthling cake                                            [30s]
   heap of 3 blessed loaves of bread                                 [120s]
   heap of 10 uncursed moss patches of mareilon                       [20s]
   uncursed alraunia antidote                                          [2s]
Valuables ('$')
   1982399 gold pieces                                             [19823s]
Gems ('*')
   heap of 2 uncursed crystals of power                                [2s]
   uncursed crystal of health                                          [1s]
   blessed crystal of light                                            [1s]
   uncursed crystal of darkness                                        [1s]
   heap of 3 uncursed crystals of light                                [3s]
   uncursed sapphire                                                   [1s]
   blessed emerald                                                     [1s]
   uncursed turquoise                                                  [1s]
   heap of 2 uncursed aquamarines                                      [2s]
   uncursed worthless piece of brown glass                             [1s]
   heap of 2 uncursed amber stones                                     [2s]
   heap of 2 uncursed crystals of knowledge                            [2s]
   uncursed worthless piece of red glass                               [1s]
   uncursed worthless piece of blue glass                              [1s]


----------------------------------------------------------------------------
                                Weapon Skills
----------------------------------------------------------------------------

Melee weapon           Lvl   Hit   Dam   DV   Level          Required marks
---------------------  ---   ---   ---   --   -------------  --------------
Unarmed fighting         2    +2    +0   +0   basic                36
Daggers & knives         1    +1    +0   +0   basic                23
Clubs & hammers          7    +5    +3   +2   skilled              125
Maces & flails           1    +1    +0   +0   basic                23
Swords                   5    +3    +2   +1   skilled              60
Axes                     6    +4    +3   +1   skilled              109
Whips                   15   +24   +19  +15   Grand Mastery
Pole arms                1    +1    +0   +0   basic                23
Twohanded weapons        1    +1    +1   +0   basic                23
Staves                   1    +1    +0   +1   basic                23

Missile weapon         Lvl   Hit   Dam   Ra   Level          Required marks

---------------------  ---   ---   ---   --   -------------  --------------
Slings                   6   +12    +9   +2   skilled              17
Bows                     6   +12    +9   +2   skilled              29
Crossbows                7   +14   +10   +2   skilled              177
Thrown axes & hammers    0    +0    +0   +0   unskilled            7
Thrown daggers           0    +0    +0   +0   unskilled            7
Thrown rocks & clubs     0    +0    +0   +0   unskilled            7
Thrown spears            0    +0    +0   +0   unskilled            7
Boomerangs & scurgari    0    +0    +0   +0   unskilled            7

Shields                Lvl   DV               Level          Required marks

---------------------  ---   ---              -------------  --------------
Shields                  9   +18              excellent            745

Damage caused with your melee weapons:
--------------------------------------
Right hand: +97 bonus to hit, 4d8+53 damage

Damage caused with your missile weapons:
----------------------------------------
Ammunition: 19, base range: 16, +85 bonus to hit, 1d6+48 damage




----------------------------------------------------------------------------
                                   Skills
----------------------------------------------------------------------------

  Alertness ................ 67    (good)         [+1d3]
  Appraising ...............100    (superb)       [+1d5]
  Archery .................. 93    (superb)       [+1]
  Athletics ................100    (superb)       [+2d4]
  Backstabbing .............100    (superb)       [+3d3]
  Climbing .................100    (superb)       [+1d3]
  Concentration ............100    (superb)       [+2d4]
  Courage ..................100    (superb)       [+3d4]
  Detect traps ............. 85    (great)        [+1d3]
  Dodge .................... 63    (good)         [+1d3]
  Find weakness ............100    (superb)       [+1d3]
  First aid ................ 75    (great)        [+1d3]
  Haggling ................. 40    (fair)         [+4d5]
  Herbalism ................100    (superb)       [+1d5]
  Law ......................100    (superb)       [+3d4]
  Listening ................100    (superb)       [+2d4]
  Literacy .................100    (superb)       [+1]
  Metallurgy ...............100    (superb)       [+2d4]
  Mining ...................100    (superb)       [+1d3]
  Pick locks ............... 41    (fair)         [+3d4]
  Pick pockets ............. 19    (mediocre)     [+3d5]
  Smithing .................100    (superb)       [+2d4]
  Stealth ..................100    (superb)       [+1]
  Swimming ................. 79    (great)        [+2d4]
  Tactics .................. 61    (good)         [+1d3]
  Two weapon combat ........ 51    (good)         [+3d4]


----------------------------------------------------------------------------
                                   Spells
----------------------------------------------------------------------------

   Acid Bolt        :   631,   7pp     (Effectivity: +0)
   Bless            :     5,   7pp     (Effectivity: +0)
   Calm Monster     :   365,   4pp     (Effectivity: +0)
   Darkness         :   681,   2pp     (Effectivity: +0)
   Disarm Trap      :   446,   5pp     (Effectivity: +0)
   Fireball         :   171,  10pp     (Effectivity: +0)
   Frost Bolt       :   359,   6pp     (Effectivity: +0)
   Identify         :   227,  37pp     (Effectivity: +0)
   Knock            :     8,  11pp     (Effectivity: +0)
   Light            :    72,   1pp     (Effectivity: +2)
   Lightning Ball   :    14,  27pp     (Effectivity: +0)
   Lightning Bolt   :   153,   6pp     (Effectivity: +0)
   Magic Lock       :   415,   4pp     (Effectivity: +0)
   Magic Missile    :   349,   4pp     (Effectivity: +0)
   Neutralize Poison:   413,   5pp     (Effectivity: +0)
   Remove Curse     :   519,  25pp     (Effectivity: +0)
   Slow Monster     :   511,   3pp     (Effectivity: +0)
   Strength of Atlas:   508,   5pp     (Effectivity: +0)
   Stun Ray         :   252,   4pp     (Effectivity: +0)
   Teleportation    :   452,  14pp     (Effectivity: +0)
   Wish             :    18, 2730pp     (Effectivity: +0)




----------------------------------------------------------------------------
                              His further life:
----------------------------------------------------------------------------

After he leaves the Drakalor Chain he is welcomed by his people with great
honors. They acknowledge his noble deeds, his valor, his cunning and his
great skills that helped to prevent the complete destruction of the world he
knows. He is crowned to be the king of all dwarves and lives a long and
prosperous life full of love, happiness and pleasure.

----------------------------------------------------------------------------
              His achievements during his battles:
----------------------------------------------------------------------------

Bandit, the dwarven weaponsmith, saved the world with his brave efforts and
became a great ruler while saving himself 95 times.
He scored 20813044 points and advanced to level 48.
He survived for 0 years, 105 days, 22 hours, 53 minutes and 30 seconds
(172196 turns).
1 companion was killed during his adventures.
Bandit visited 171 places.
His strength score was modified by +20 during his career.
His learning score was modified by +25 during his career.
His willpower score was modified by +31 during his career.
His dexterity score was modified by +22 during his career.
His toughness score was modified by +31 during his career.
His charisma score was modified by +17 during his career.
His appearance score was modified by +32 during his career.
His mana score was modified by -2 during his career.
His perception score was modified by +16 during his career.
He was unnaturally aged by 1 year.
He was the champion of the arena.
He brought an infamous raider lord to justice.
He defeated the arch enemy of a mighty karmic wyrm.
He adhered to the principles of the Cat Lord and thus rose to great fame.
He saved Khelavaster from certain death.
He left the Drakalor Chain after completing his quest and became a great
leader and famous hero.
8658 monsters perished under his attacks.
The following 42 artifacts were generated during his adventure:
  the si
  the dwarven rune axe "Rolf's Companion"
  the scythe of corruption "Moon Sickle"
  the ring of the master cat
  the golden gladius "Death's Sting"
  the dwarven shield "Rolf's Saviour"
  the ancient claymore "Death's Blade"
  the Chaos Orb of Elemental Water
  the Chaos Orb of Elemental Air
  the Chaos Orb of Elemental Fire
  the Chaos Orb of Elemental Earth
  the lead-filled mace "Big Punch"
  the scorched spear
  the rune-covered trident
  the sword of Nonnak
  the elemental gauntlets
  the ring of the High Kings
  the crown of science
  the ancient mummy wrapping
  the ankh
  Perion's mithril plate mail
  the black torc
  the bracers of war
  the Chaos Orb of Elemental Mana
  the rune-covered sling "Whirlwind"
  the fine leather armor "Nature's Companion"
  the staff of the archmagi
  the rune-covered heavy mace "Purifier"
  the sapphire amulet "Preserver"
  the emerald dagger "Serpent's Bite"
  the antediluvian dwarven map fragment
  the antediluvian dwarven map
  the ancient dwarven key
  the unpick axe
  the horn of plenty
  the staff of wonder
  the thorny whip "Bloody Rose"
  the glowing green cloak "Venom Mantle"
  the wicked spear "Scorpion's Sting"
  the black whip of extinction
  the tattered cloak of the dark souls
  the stone of the ages
He possessed the following intrinsics:
  He was fire resistant (also through items).
  He was poison resistant (gained through items).
  He was cold resistant (also through an item).
  He was acid resistant (also through an item).
  He was lucky (also through items).
  Fate smiled upon him (also through an item).
  He was able to control teleportation.
  He was stun resistant (gained through an item).
  He was paralyzation resistant (gained through an item).
  He was resistant to death rays (also through an item).
  He was shock resistant (also through an item).
  He was able to see invisible things (gained through an item).
  He was immune to fire attacks.
  He was immune to acidic attacks.
  He was able to resist confusion attacks (gained through an item).
He had the following talents: Affinity with Whips, Aggressive, Careful,
Extremely Hardy, Good Shot, Hardy, Healthy, Immune to Pain, Iron Skin, Long
Stride, Mithril Skin, Shield Expert, Shield Specialist, Steel Skin, Strong,
Tough Skin, Very Hardy.
He had a final speed score of 126 (final base speed: 130).
He was a messiah of Morodwyn.
He asked for 6 divine interventions.
He was a holy champion of Order.

The following monsters were vanquished:
      2 acid vortices
     24 air demons
      7 air elementals
      3 air grues
     26 ancient black dragons
     95 ancient blue dragons
      1 ancient blue wyrm
      1 Ancient Chaos Wyrm
      1 ancient karmic dragon
      8 ancient minotaurs
     22 ancient red dragons
      1 Ancient Stone Beast
     28 ancient white dragons
     27 animated armors
     25 animated trees
      6 ankhegs
     20 annihilators
     10 annis hags
     15 antediluvian orcs
      2 antediluvian orc chieftains
     33 assassins
      7 balors
     50 bandits
      1 banshee
      7 barbarians
      9 barbarian leaders
      2 battle bunnies
     23 berserkers
      5 berserker emperors
     11 berserker kings
     23 berserker lords
     10 berserker princes
      1 big casino guard
     15 big dogs
     28 black dragons
     27 black dragon hatchlings
      1 black druid
     22 black hurthlings
      4 black slayers
     13 black wizards
     97 blue dragons
    126 blue dragon hatchlings
      1 bone golem
      5 breakers
      3 brown bears
      8 brown worms
     30 bugbears
      4 builders
      2 bulettes
      1 bunny master
      9 carrion crawlers
      1 casino guard
     18 cave bears
     49 cave fishers
     64 cave lizards
     72 cavemen
      1 Chaos Archmage
     16 chaos brothers
      8 chaos eyes
     12 chaos knights
      8 chaos lizards
     37 chaos mutants
     12 chaos plague bearers
     23 chaos rats
    176 chaos servants
     13 chaos sisters
     39 chaos spawn
     15 chaos spiders
      9 chaos vipers
     19 chaos warriors
     18 chaos wizards
     30 claw bugs
     51 clay golems
     15 clay statues
      4 cobras
      3 cooshoos
     36 corpse fiends
      9 corruptors
      1 crime lord
     13 crystal statues
     10 cutpurses
     37 cyclopes
     35 dark elven archers
     11 dark elven lords
     14 dark elven priestesses
      3 dark elven princesses
     45 dark elven warriors
     18 dark elven wizards
     62 dark orcs
     13 dark sages
      3 death oozes
     16 detrapsters
      6 diamond golems
     74 dire wolves
     23 displacer beasts
     36 doppelgangers
      5 Dorn Beasts
      3 dragon turtles
      1 dwarven battle spirit
     47 dwarven chaos knights
      1 dwarven smith
     53 earth elementals
      1 emperor lich
     21 ettins
      6 eyes of destruction
     41 fire beetles
     13 fire demons
     55 fire drakes
     53 fire elementals
     34 fire giants
      8 fire giant kings
      7 fire grues
    127 fire lizards
      3 fire vortices
     23 flesh golems
     19 floating eyes
     14 fomorian giants
     43 frost giants
     20 frost giant berserkers
     17 frost giant jarls
     22 frost salamanders
      6 frozen ones
      1 fungoid overlord
     28 fungoid sporecasters
     15 gargantuan rats
     16 gargoyles
     12 gelatinous cubes
    113 ghosts
      8 ghost bats
      4 ghost kings
     18 ghost lords
    136 ghuls
      1 giant ant queen
      7 giant ant warriors
      5 giant ant workers
     59 giant bats
      3 giant bee queens
     93 giant bee warriors
     36 giant bee workers
      1 giant boar
     26 giant centipedes
      1 giant eel
     17 giant frogs
     35 giant lizards
      4 giant raccoons
     78 giant rats
      8 giant rust monsters
      1 giant shark
     10 giant slugs
     35 giant spiders
      1 giant turtle
     11 gibbering mouthers
     59 gnolls
      7 gnoll chieftains
    133 goblins
     50 goblin berserkers
     21 goblin chieftains
     95 goblin rockthrowers
     71 goblin slavemasters
      5 gorgons
     27 gray oozes
      5 gray slayers
      1 great black wyrm
      8 great blue wyrms
      5 great karmic wyrms
      1 great red wyrm
      1 great water dragon
      1 great white wyrm
      8 greater air elementals
      1 greater black unicorn
    133 greater chaos servants
      7 greater claw bugs
      5 greater daemons
     18 greater doppelgangers
      1 greater earth elemental
      4 greater fire elementals
     62 greater fungoids
      3 greater mimics
      6 greater molochs
     42 greater mummies
      2 greater titans
     13 greater water elementals
     10 green blobs
     11 green hags
     16 green slimes
     10 green worms
      6 gremlins
     16 griffons
     11 grizzly bears
      2 half-orc bouncers
     23 harpies
     26 hell hounds
     63 hill giants
      9 hill giant chieftains
     12 hill orcs
     23 hill orc sergeants
     37 hippogriffs
     38 hobgoblins
      3 hobgoblin chiefs
      7 hobgoblin leaders
     15 homunculi
     18 huge bats
      9 hydras
     30 hyenas
      1 ice elemental
     64 ice lizards
      2 ice vortices
      9 imps
      1 invisible stalker
      1 iron golem
    206 jackals
      2 jackal demons
     21 jackalweres
      4 juggernauts
      2 karmic dragons
      3 karmic dragon hatchlings
     10 karmic lizards
      1 killer bug
      3 king cobras
     89 kobolds
     36 kobold chieftains
     11 kobold shamans
     13 kobold trapmasters
     72 large bats
      7 large dogs
     27 large gnolls
     19 large jackals
     57 large kobolds
     48 large orcs
      8 large rust monsters
     21 large snakes
    172 large spiders
      7 least daemons
      7 lesser daemons
     10 leucrottas
      7 liches
      1 lich king
     51 lightning lizards
      1 lightning vortex
      1 living wall
     46 lizard men
     16 magebane eyes
     16 magedoom eyes
     64 major fungoids
      6 margoyles
     33 master assassins
      8 master liches
      5 master mimics
      1 master necromancer
      1 Master Summoner
     27 master swordsmen
     20 mimics
      3 mimic hiveminds
     36 minor fungoids
     19 minotaurs
     46 minotaur lords
      2 minotaur mages
      5 mist wolves
      6 molochs
     31 mummies
      1 mummy lord
     11 necromancers
     15 ochre jellies
    117 ogres
      8 ogre emperors
      5 ogre kings
     27 ogre lords
     23 ogre magi
     85 orcs
      4 orc butchers
     14 orc chieftains
     22 orc scorchers
     16 outlaws
     16 outlaw leaders
     35 owlbears
     32 pit vipers
      7 pixies
      6 pixie archers
      5 purple worms
     26 quasits
      4 quicklings
      7 quickling kings
      8 quickling lords
     22 rabid dogs
     30 raiders
      1 raider lord
    174 rats
     30 ratling archers
     14 ratling duelists
     12 ratling fencers
     37 ratling master thieves
     25 ratling thieves
     12 ratling warlords
     22 ratling warriors
      4 rattlesnakes
      9 red dragons
     24 red dragon hatchlings
     35 red worms
      3 revenants
     25 rust monsters
    131 shadows
     11 shadow centipedes
     10 shadow lords
     23 shadow trolls
      2 shadow wyrms
     11 shambling mounds
     18 silver wolves
      1 skeletal king
     46 skeletal warriors
    159 skeletons
     13 slow shadows
      1 Snake from Beyond
     34 spectres
     16 staring eyes
     44 steel golems
     19 steel horrors
     19 steel zombies
     92 stone giants
     18 stone giant lords
     54 stone golems
     33 stone grues
      4 stone oozes
      8 stone snakes
     61 stone statues
      6 swamp hydras
     23 swordsmen
     47 tarantulas
      1 thug
     16 titans
      1 trapster
     56 trolls
     45 troll berserkers
     19 troll chiefs
      7 troll kings
      1 truesilver golem
      2 ultimate doppelgangers
      1 undead chaos dwarven berserker
     20 vampires
     52 vapor rats
      9 vipers
     10 water demons
     13 water elementals
     21 water grues
     29 water snakes
     29 wererats
     21 werewolves
      3 werewolf kings
      7 werewolf lords
     18 white dragons
     68 white dragon hatchlings
     35 white worms
     59 wights
      3 will o'wisps
     73 wolves
     50 wraiths
     66 writhing masses of primal chaos
     18 yellow oozes
    124 zombies

Dispatched the legendary greater doppelganger Ipse.
Dispatched the legendary dark orc Enryb-eel.
Dispatched the legendary fire giant Groc.


----------------------------------------------------------------------------
                               Playing Time
----------------------------------------------------------------------------

You played for 109 hours, 59 minutes and 47 seconds.


----------------------------------------------------------------------------
                             Version Information
----------------------------------------------------------------------------

Ancient Domains Of Mystery
Version 3.0.6
OSX Build: Jun 8 2018 08:46:06

